{
  "array": [
    "brilliance",
    "future",
    "humanity",
    "philosophy",
    "concept",
    "perception",
    "liberty",
    "prize",
    "state",
    "swear",
    "stream",
    "cucumber",
    "moral",
    "flesh",
    "tract",
    "waste",
    "coincide",
    "inhibition",
    "pastel",
    "observation",
    "celebration",
    "touch",
    "question",
    "brainstorm",
    "cover",
    "literacy",
    "nature",
    "claim",
    "magnetic",
    "examination",
    "queen",
    "agriculture",
    "preparation",
    "serve",
    "temptation",
    "skate",
    "flourish",
    "entry",
    "discuss",
    "recording",
    "wedding",
    "panel",
    "robot",
    "normal",
    "corner",
    "discover",
    "comment",
    "horse",
    "commitment",
    "recommendation",
    "adaptable",
    "breezy",
    "irate",
    "bloody",
    "yell",
    "sassy",
    "coo",
    "wave",
    "stingy",
    "elated",
    "responsible",
    "tiny",
    "itchy",
    "cellar",
    "savory",
    "afternoon",
    "funny",
    "wear",
    "rain",
    "erase",
    "tail",
    "know",
    "walk",
    "perpetual",
    "fish",
    "cynical",
    "spotty",
    "title",
    "curious",
    "imply",
    "cry",
    "walk",
    "announce",
    "irritating",
    "sheet",
    "decorous",
    "chivalrous",
    "muscle",
    "gorgeous",
    "injure",
    "animal",
    "account",
    "hour",
    "ocean",
    "enthusiastic",
    "cook",
    "delay",
    "milk",
    "sky",
    "last",
    "bat",
    "snakes",
    "vigorous",
    "tranquil",
    "inflect",
    "unable",
    "mouth",
    "reflective",
    "hellish",
    "care",
    "sheep",
    "fairies",
    "corrod",
    "ice",
    "crazy",
    "brush",
    "conclude",
    "bleed",
    "salute",
    "existence",
    "thread",
    "heartbreaking",
    "donkey",
    "remove",
    "dip",
    "equal",
    "present",
    "cork",
    "giants",
    "rise",
    "rest",
    "piquant",
    "light",
    "scar",
    "sheep",
    "stay",
    "combative",
    "perish",
    "train",
    "stare",
    "travel",
    "uncovered",
    "earn",
    "zonked",
    "punishment",
    "determined",
    "hat",
    "labored",
    "selective",
    "unique"
  ]
}
